Lab 9 binomial regression keys
…
Solutions

esoph.unclassed <- datasets::esoph %>%
  as_tibble() %>%
  mutate(agegp = unclass(agegp),
         alcgp = unclass(alcgp),
         tobgp = unclass(tobgp)) %>%
  print()

## # A tibble: 88 × 5
##    agegp alcgp tobgp ncases ncontrols
##    <int> <int> <int>  <dbl>     <dbl>
##  1     1     1     1      0        40
##  2     1     1     2      0        10
##  3     1     1     3      0         6
##  4     1     1     4      0         5
##  5     1     2     1      0        27
##  6     1     2     2      0         7
##  7     1     2     3      0         4
##  8     1     2     4      0         7
##  9     1     3     1      0         2
## 10     1     3     2      0         1
## # ℹ 78 more rows
…
